[api-updater (non-obsolete-error-filter)] 2021/11/17 3:32:55 : Starting D:/unity/2020.3.11f1/Editor/Data/Tools/ScriptUpdater/APIUpdater.NonObsoleteApiUpdaterDetector.exe
[api-updater (non-obsolete-error-filter)] 
----------------------------------
jit/startup time      : 937.1647ms
moved types parse time: 60ms
candidates parse time : 19ms
C# parse time         : 690ms
candidates check time : 89ms
console write time    : 6ms

[api-updater (non-obsolete-error-filter)] 2021/11/17 3:34:57 : Starting D:/unity/2020.3.11f1/Editor/Data/Tools/ScriptUpdater/APIUpdater.NonObsoleteApiUpdaterDetector.exe
[api-updater (non-obsolete-error-filter)] 
----------------------------------
jit/startup time      : 61.0139ms
moved types parse time: 45ms
candidates parse time : 0ms
C# parse time         : 162ms
candidates check time : 44ms
console write time    : 0ms

[api-updater (non-obsolete-error-filter)] 2021/11/17 3:36:22 : Starting D:/unity/2020.3.11f1/Editor/Data/Tools/ScriptUpdater/APIUpdater.NonObsoleteApiUpdaterDetector.exe
[api-updater (non-obsolete-error-filter)] 
----------------------------------
jit/startup time      : 60.5198ms
moved types parse time: 40ms
candidates parse time : 0ms
C# parse time         : 156ms
candidates check time : 44ms
console write time    : 0ms

[api-updater (non-obsolete-error-filter)] 2021/11/19 7:18:00 : Starting D:/unity/2020.3.11f1/Editor/Data/Tools/ScriptUpdater/APIUpdater.NonObsoleteApiUpdaterDetector.exe
[api-updater (non-obsolete-error-filter)] 
----------------------------------
jit/startup time      : 228.9752ms
moved types parse time: 42ms
candidates parse time : 0ms
C# parse time         : 158ms
candidates check time : 22ms
console write time    : 0ms

